jbiadmin01311 : Test partial service assembly deployment for target=cluster ( Fix for CR 6514223 )

BUILD SUCCESSFUL
IGNORE Total time: 1 second
IGNORE JBI_HOME is C:/chikkala/dev/open-esb-dev/main/open-esb/install/as8/jbi
IGNORE JBI_DOMAIN_ROOT is C:/chikkala/dev/open-esb-dev/main/open-esb/install/as8/domains/CAS
jbi_instance_name is server
IGNORE jmx.provider is service:jmx:rmi:///jndi/rmi://maui:8989/management/rmi-jmx-connector

BUILD SUCCESSFUL
IGNORE Total time: 1 second
Installing a component
IGNORE   jmx connection info: (host=localhost, port=5151, secure=true, username=admin, target=cluster1 )
IGNORE   file=C:/chikkala/dev/open-esb-dev/main/open-esb/runtime/esb-manage/bld/test-classes/dist/component-binding-1.jar
Install component succeeded. [
manage-binding-1
]

BUILD SUCCESSFUL
IGNORE Total time: 2 seconds
Starting a component
IGNORE   jmx connection info: (host=localhost, port=5151, secure=true, username=admin, target=cluster1 )
  name=manage-binding-1
Start component succeeded. [
manage-binding-1
]

BUILD SUCCESSFUL
IGNORE Total time: 1 second
Installing a component
IGNORE   jmx connection info: (host=localhost, port=5151, secure=true, username=admin, target=cluster1 )
IGNORE   file=C:/chikkala/dev/open-esb-dev/main/open-esb/runtime/esb-manage/bld/test-classes/dist/component-binding-2.jar
Install component succeeded. [
manage-binding-2
]

BUILD SUCCESSFUL
IGNORE Total time: 2 seconds
Starting a component
IGNORE   jmx connection info: (host=localhost, port=5151, secure=true, username=admin, target=cluster1 )
  name=manage-binding-2
Start component succeeded. [
manage-binding-2
]

BUILD SUCCESSFUL
IGNORE Total time: 1 second
Deploying a service assembly
IGNORE   jmx connection info: (host=localhost, port=5151, secure=true, username=admin, target=cluster1 )
IGNORE   file=C:/chikkala/dev/open-esb-dev/main/open-esb/runtime/esb-manage/bld/test-classes/dist/deploy-sa.jar
Service assembly deployment partially succeeded. [
Instance: cluster1-instance1
  WARNING:(JBIMA0404)Deployment of service assembly esbadmin00089-sa succeeded partially; some service units failed to deploy.
  Component: manage-binding-1
    WARNING:(JBIWHOOPS)SU deploy failed
Instance: cluster1-instance2
  WARNING:(JBIMA0404)Deployment of service assembly esbadmin00089-sa succeeded partially; some service units failed to deploy.
  Component: manage-binding-1
    WARNING:(JBIWHOOPS)SU deploy failed
]

BUILD SUCCESSFUL
IGNORE Total time: 2 seconds
============================================================
  List of Service Assemblies for Target "cluster1"
============================================================
Name       : esbadmin00089-sa
State      : Shutdown
Description: Test SA for shasta/manage tests
Service units in this service assembly [2]
  Service unit : esbadmin00089-su-1
    State      : Unknown
    Deployed on: manage-binding-1
    Description: Test service unit #1
  Service unit : esbadmin00089-su-2
    State      : Shutdown
    Deployed on: manage-binding-2
    Description: Test service unit #2
------------------------------------------------------------

BUILD SUCCESSFUL
IGNORE Total time: 1 second
Undeploying a service assembly
IGNORE   jmx connection info: (host=localhost, port=5151, secure=true, username=admin, target=cluster1 )
  name=esbadmin00089-sa
Service assembly undeployment succeeded. [
esbadmin00089-sa
]

BUILD SUCCESSFUL
IGNORE Total time: 1 second
Stopping a component
IGNORE   jmx connection info: (host=localhost, port=5151, secure=true, username=admin, target=cluster1 )
  name=manage-binding-1
Stop component succeeded. [
manage-binding-1
]

BUILD SUCCESSFUL
IGNORE Total time: 1 second
Shutting down a component
IGNORE   jmx connection info: (host=localhost, port=5151, secure=true, username=admin, target=cluster1 )
  name=manage-binding-1
Shutdown component succeeded. [
manage-binding-1
]

BUILD SUCCESSFUL
IGNORE Total time: 1 second
Uninstalling a component
IGNORE   jmx connection info: (host=localhost, port=5151, secure=true, username=admin, target=cluster1 )
  name=manage-binding-1
Uninstall component succeeded. [
manage-binding-1
]

BUILD SUCCESSFUL
IGNORE Total time: 1 second
Stopping a component
IGNORE   jmx connection info: (host=localhost, port=5151, secure=true, username=admin, target=cluster1 )
  name=manage-binding-2
Stop component succeeded. [
manage-binding-2
]

BUILD SUCCESSFUL
IGNORE Total time: 1 second
Shutting down a component
IGNORE   jmx connection info: (host=localhost, port=5151, secure=true, username=admin, target=cluster1 )
  name=manage-binding-2
Shutdown component succeeded. [
manage-binding-2
]

BUILD SUCCESSFUL
IGNORE Total time: 1 second
Uninstalling a component
IGNORE   jmx connection info: (host=localhost, port=5151, secure=true, username=admin, target=cluster1 )
  name=manage-binding-2
Uninstall component succeeded. [
manage-binding-2
]

BUILD SUCCESSFUL
IGNORE Total time: 1 second
