jbiadmin00134 : Rollback of a service unit to Shutdown state

BUILD SUCCESSFUL
IGNORE Total time: 1 second
IGNORE JBI_HOME is D:/nikita/dev/jsr208/main/open-esb/install/as8/jbi
IGNORE JBI_DOMAIN_ROOT is D:/nikita/dev/jsr208/main/open-esb/install/as8/domains/CAS
IGNORE jbi_instance_name is server
IGNORE jmx.provider is service:jmx:rmi:///jndi/rmi://Mystique01:10789/management/rmi-jmx-connector

BUILD SUCCESSFUL
IGNORE Total time: 1 second
Installing a component
IGNORE jmx connection info: (host=localhost, port=6951, secure=true, username=admin, target=server )
IGNORE file=D:/nikita/dev/jsr208/main/open-esb/runtime/esb-manage/bld/test-classes/dist/component-binding-1.jar
Install component succeeded. [
manage-binding-1
]

BUILD SUCCESSFUL
IGNORE Total time: 3 seconds
Starting a component
IGNORE jmx connection info: (host=localhost, port=6951, secure=true, username=admin, target=server )
IGNORE name=manage-binding-1
Start component succeeded. [
manage-binding-1
]

BUILD SUCCESSFUL
IGNORE Total time: 2 seconds
Installing a component
IGNORE jmx connection info: (host=localhost, port=6951, secure=true, username=admin, target=server )
IGNORE file=D:/nikita/dev/jsr208/main/open-esb/runtime/esb-manage/bld/test-classes/dist/component-binding-2.jar
Install component succeeded. [
manage-binding-2
]

BUILD SUCCESSFUL
IGNORE Total time: 3 seconds
Starting a component
IGNORE jmx connection info: (host=localhost, port=6951, secure=true, username=admin, target=server )
IGNORE name=manage-binding-2
Start component succeeded. [
manage-binding-2
]

BUILD SUCCESSFUL
IGNORE Total time: 2 seconds
Deploying a service assembly
IGNORE jmx connection info: (host=localhost, port=6951, secure=true, username=admin, target=server )
IGNORE file=D:/nikita/dev/jsr208/main/open-esb/runtime/esb-manage/bld/test-classes/dist/deploy-sa.jar
Service assembly deployment succeeded. [
esbadmin00089-sa
]

BUILD SUCCESSFUL
IGNORE Total time: 3 seconds
Starting a service assembly
IGNORE jmx connection info: (host=localhost, port=6951, secure=true, username=admin, target=server )
IGNORE name=esbadmin00089-sa
Start service assembly partially succeeded. [
  WARNING:(JBIMA0405)Start of service assembly esbadmin00089-sa succeeded partially; some service units failed to start.
  Component: manage-binding-1
    ERROR:(JBIWHOOPS)Service unit esbadmin00089-su-1 start failed
  Component: manage-binding-2
    INFO:(JBIMA0409)Lifecycle operation start succeeded for Service Unit esbadmin00089-su-2.
]

BUILD SUCCESSFUL
IGNORE Total time: 2 seconds
============================================================
  List of Service Assemblies for Target "server"
============================================================
Name       : esbadmin00089-sa
State      : Started
Description: Test SA for shasta/manage tests
Service units in this service assembly [2]
  Service unit : esbadmin00089-su-1
    State      : Shutdown
    Deployed on: manage-binding-1
    Description: Test service unit #1
  Service unit : esbadmin00089-su-2
    State      : Started
    Deployed on: manage-binding-2
    Description: Test service unit #2
------------------------------------------------------------

BUILD SUCCESSFUL
IGNORE Total time: 2 seconds
Stopping a service assembly
IGNORE  jmx connection info: (host=localhost, port=6951, secure=true, username=admin, target=server )
IGNORE  name=esbadmin00089-sa
Stop service assembly succeeded. [
esbadmin00089-sa
]

BUILD SUCCESSFUL
IGNORE Total time: 3 seconds
Shutting down a service assembly
IGNORE  jmx connection info: (host=localhost, port=6951, secure=true, username=admin, target=server )
IGNORE  name=esbadmin00089-sa
Shutdown service assembly succeeded. [
esbadmin00089-sa
]

BUILD SUCCESSFUL
IGNORE Total time: 3 seconds
============================================================
  List of Service Assemblies for Target "server"
============================================================
Name       : esbadmin00089-sa
State      : Shutdown
Description: Test SA for shasta/manage tests
Service units in this service assembly [2]
  Service unit : esbadmin00089-su-1
    State      : Shutdown
    Deployed on: manage-binding-1
    Description: Test service unit #1
  Service unit : esbadmin00089-su-2
    State      : Shutdown
    Deployed on: manage-binding-2
    Description: Test service unit #2
------------------------------------------------------------

BUILD SUCCESSFUL
IGNORE Total time: 2 seconds
Undeploying a service assembly
IGNORE jmx connection info: (host=localhost, port=6951, secure=true, username=admin, target=server )
IGNORE name=esbadmin00089-sa
Service assembly undeployment succeeded. [
esbadmin00089-sa
]

BUILD SUCCESSFUL
IGNORE Total time: 2 seconds
============================================================
  List of Service Assemblies for Target "server"
============================================================
No Service Assemblies were found for the specified query.
------------------------------------------------------------

BUILD SUCCESSFUL
IGNORE Total time: 2 seconds
Stopping a component
IGNORE jmx connection info: (host=localhost, port=6951, secure=true, username=admin, target=server )
IGNORE name=manage-binding-1
Stop component succeeded. [
manage-binding-1
]

BUILD SUCCESSFUL
IGNORE Total time: 2 seconds
Shutting down a component
IGNORE jmx connection info: (host=localhost, port=6951, secure=true, username=admin, target=server )
IGNORE name=manage-binding-1
Shutdown component succeeded. [
manage-binding-1
]

BUILD SUCCESSFUL
IGNORE Total time: 2 seconds
Uninstalling a component
IGNORE jmx connection info: (host=localhost, port=6951, secure=true, username=admin, target=server )
IGNORE name=manage-binding-1
Uninstall component succeeded. [
manage-binding-1
]

BUILD SUCCESSFUL
IGNORE Total time: 2 seconds
Stopping a component
IGNORE jmx connection info: (host=localhost, port=6951, secure=true, username=admin, target=server )
IGNORE name=manage-binding-2
Stop component succeeded. [
manage-binding-2
]

BUILD SUCCESSFUL
IGNORE Total time: 2 seconds
Shutting down a component
IGNORE jmx connection info: (host=localhost, port=6951, secure=true, username=admin, target=server )
IGNORE name=manage-binding-2
Shutdown component succeeded. [
manage-binding-2
]

BUILD SUCCESSFUL
IGNORE Total time: 2 seconds
Uninstalling a component
IGNORE jmx connection info: (host=localhost, port=6951, secure=true, username=admin, target=server )
IGNORE name=manage-binding-2
Uninstall component succeeded. [
manage-binding-2
]

BUILD SUCCESSFUL
IGNORE Total time: 2 seconds
