jbiadmin00138 : Test for CR 6546022 - undeploy after partial deployment in cluster
Command create-cluster executed successfully.
Command create-instance executed successfully.
IGNORE Using 38,081 for HTTP_LISTENER_PORT.
IGNORE Using 38,182 for HTTP_SSL_LISTENER_PORT.
IGNORE Using 33,821 for IIOP_SSL_LISTENER_PORT.
IGNORE Using 37,677 for JMS_PROVIDER_PORT.
IGNORE Using 33,701 for IIOP_LISTENER_PORT.
IGNORE Using 38,687 for JMX_SYSTEM_CONNECTOR_PORT.
IGNORE Using 33,921 for IIOP_SSL_MUTUALAUTH_PORT.
IGNORE Command create-instance executed successfully.
Command start-instance executed successfully.
Command start-instance executed successfully.
Installed component DeployOnceBindingComponent.
IGNORE
IGNORE Instance: testinstance2
IGNORE  WARNING:(JBIMA0495)Deployment of service assembly cluster-partial-deploy-sa succeeded.
Undeployed service assembly cluster-partial-deploy-sa.
Shut Down component DeployOnceBindingComponent.
Uninstalled component DeployOnceBindingComponent.
Command stop-instance executed successfully.
Command stop-instance executed successfully.
Command delete-instance executed successfully.
Command delete-instance executed successfully.
Command delete-cluster executed successfully.
