jbiadmin00128 : Tests getting component custom MBean ObjectNames
IGNORE JBI_HOME is D:/nikita/dev/jsr208/main/open-esb/install/as8/jbi
IGNORE JBI_DOMAIN_ROOT is D:/nikita/dev/jsr208/main/open-esb/install/as8/domains/CAS
IGNORE jbi_instance_name is server
IGNORE jmx.provider is service:jmx:rmi:///jndi/rmi://Mystique01:10789/management/rmi-jmx-connector

BUILD SUCCESSFUL
IGNORE Total time: 1 second
Installing a component
IGNORE   jmx connection info: (host=localhost, port=6951, secure=true, username=admin, target=instance1 )
IGNORE   file=D:/nikita/dev/jsr208/main/open-esb/runtime/esb-manage/bld/test-classes/dist/component-with-custom-mbean.jar
Install component succeeded. [
manage-binding-1
]

BUILD SUCCESSFUL
IGNORE Total time: 4 seconds
Starting a component
IGNORE   jmx connection info: (host=localhost, port=6951, secure=true, username=admin, target=instance1 )
IGNORE   name=manage-binding-1
Start component succeeded. [
manage-binding-1
]

BUILD SUCCESSFUL
IGNORE Total time: 2 seconds
IGNORE JBI_HOME is D:/nikita/dev/jsr208/main/open-esb/install/as8/jbi
IGNORE JBI_DOMAIN_ROOT is D:/nikita/dev/jsr208/main/open-esb/install/as8/domains/CAS
IGNORE jbi_instance_name is server
IGNORE jmx.provider is service:jmx:rmi:///jndi/rmi://Mystique01:10789/management/rmi-jmx-connector
IGNORE Jan 10, 2007 5:08:59 PM com.sun.enterprise.iiop.IIOPEndpointsInfo <clinit>
IGNORE INFO: com.sun.enterprise.iiop.IIOPEndpointsInfo<static block>: no server context
##### Result of  getCustomMBeanNames =
 Custom MBeans on instance instance1 : 
com.sun.jbi:JbiName=instance1,CustomControlName=manage-binding-1Config,ComponentName=manage-binding-1,ControlType=Custom,ComponentType=Installed,InstalledType=Binding
##### Result of  getComponentConfigurationFacadeMBeanName = com.sun.jbi:Target=instance1,ServiceType=Configuration,ComponentName=manage-binding-1

BUILD SUCCESSFUL
IGNORE Total time: 3 seconds
Stopping a component
IGNORE   jmx connection info: (host=localhost, port=6951, secure=true, username=admin, target=instance1 )
IGNORE   name=manage-binding-1
Stop component succeeded. [
manage-binding-1
]

BUILD SUCCESSFUL
IGNORE Total time: 2 seconds
Shutting down a component
IGNORE   jmx connection info: (host=localhost, port=6951, secure=true, username=admin, target=instance1 )
IGNORE   name=manage-binding-1
Shutdown component succeeded. [
manage-binding-1
]

BUILD SUCCESSFUL
IGNORE Total time: 4 seconds
Uninstalling a component
IGNORE   jmx connection info: (host=localhost, port=6951, secure=true, username=admin, target=instance1 )
IGNORE   name=manage-binding-1
Uninstall component succeeded. [
manage-binding-1
]

BUILD SUCCESSFUL
IGNORE Total time: 3 seconds