testname is jbiadmin00011
Creating cluster : cluster1
Command create-cluster executed successfully.
Creating instance : instance2
Command create-instance executed successfully.
Starting instance : instance2
Command start-instance executed successfully.
IGNORE JBI_HOME is D:/nikita/dev/jsr208/main/open-esb/install/as8/jbi
IGNORE JBI_DOMAIN_ROOT is D:/nikita/dev/jsr208/main/open-esb/install/as8/domains/CAS
IGNORE jbi_instance_name is CAS
IGNORE jmx.provider is service:jmx:rmi:///jndi/rmi://Mystique01:10789/management/rmi-jmx-connector
##### Result of installSharedLibrary = TestSharedLibrary
##### Result of uninstallSharedLibrary = true

BUILD SUCCESSFUL
IGNORE Total time: 6 seconds
IGNORE JBI_HOME is D:/nikita/dev/jsr208/main/open-esb/install/as8/jbi
IGNORE JBI_DOMAIN_ROOT is D:/nikita/dev/jsr208/main/open-esb/install/as8/domains/CAS
IGNORE jbi_instance_name is CAS
IGNORE jmx.provider is service:jmx:rmi:///jndi/rmi://Mystique01:10789/management/rmi-jmx-connector
##### Result of loadNewInstaller = com.sun.jbi:Target=cluster1,ServiceType=Installer,ComponentName=manage-binding-1
##### Result of install = com.sun.jbi:Target=cluster1,ServiceType=ComponentLifeCycle,ComponentName=manage-binding-1
##### Result of unloadInstaller = true
##### Result of loadNewInstaller = com.sun.jbi:Target=cluster1,ServiceType=Installer,ComponentName=manage-binding-2
##### Result of install = com.sun.jbi:Target=cluster1,ServiceType=ComponentLifeCycle,ComponentName=manage-binding-2
##### Result of unloadInstaller = true
##### Result of getComponentByName = com.sun.jbi:Target=cluster1,ServiceType=ComponentLifeCycle,ComponentName=manage-binding-1
##### Result of getComponentByName = com.sun.jbi:Target=cluster1,ServiceType=ComponentLifeCycle,ComponentName=manage-binding-2
##### Result of start = 
##### Result of start = 
##### Result of getCurrentState = Running
##### Result of getCurrentState = Running
##### Result of stop = 
##### Result of stop = 
##### Result of getCurrentState = Stopped
##### Result of getCurrentState = Stopped
##### Result of shutDown = 
##### Result of shutDown = 
##### Result of getCurrentState = Shutdown
##### Result of getCurrentState = Shutdown
##### Result of loadInstaller = com.sun.jbi:Target=cluster1,ServiceType=Installer,ComponentName=manage-binding-1
##### Result of unloadInstaller = true
##### Result of loadInstaller = com.sun.jbi:Target=cluster1,ServiceType=Installer,ComponentName=manage-binding-2
##### Result of unloadInstaller = true

BUILD SUCCESSFUL
IGNORE Total time: 9 seconds
Stopping instance : instance2
Command stop-instance executed successfully.
Deleting instance : instance2
Command delete-instance executed successfully.
Deleting cluster : cluster1
Command delete-cluster executed successfully.
