
-------------------------------------------------------------------
 Start Test : jbi-admin-cli00021
 Description: Negative Runtime logger and configuration tests
-------------------------------------------------------------------
-------------------------------------------------------------------
 Building the test artifacts
-------------------------------------------------------------------

-------------------------------------------------------------------
 Negative Upgrade Test - Bogus name for upgrade file
-------------------------------------------------------------------
upgrade-jbi-component --upgradefile=fred sun-http-binding
CLI301 Upgrade failed. The file fred could not be found.

-------------------------------------------------------------------
 Negative Upgrade Test - Archive file does not match specified component name
-------------------------------------------------------------------
upgrade-jbi-component --upgradefile=cli-test-binding1.jar sun-http-binding
JBIMA1341: Component name in the archive provided does not match component selected for upgrade.

-------------------------------------------------------------------
 Negative Runtime Logger Test - Specify an invalid logger type
-------------------------------------------------------------------
set-jbi-runtime-logger com.sun.jbi.management=fred
Bad level "fred"

-------------------------------------------------------------------
 Negative Runtime Logger Test - Specify an invalid logger name
-------------------------------------------------------------------
set-jbi-runtime-logger com.sun.jbi.management.fred=WARNING
  ERROR:(UICMN2843)Logger com.sun.jbi.management.fred does not exist in the JBI Runtime.

-------------------------------------------------------------------
 Negative Runtime Logger Test - Specify a property file the does not exist
-------------------------------------------------------------------
set-jbi-runtime-logger fred.property
CLI131 Invalid property syntax.

-------------------------------------------------------------------
 Positive Runtime Logger Test
-------------------------------------------------------------------
set-jbi-runtime-logger positiveRuntimeLogger1.property
CLI131 Invalid property syntax.

-------------------------------------------------------------------
 Negative Runtime Logger Test - Property file with invaled logger level
-------------------------------------------------------------------
set-jbi-runtime-logger negitiveRuntimeLogger1.property
CLI131 Invalid property syntax.

-------------------------------------------------------------------
 Negative Runtime Logger Test - Property file with invalid logger name
-------------------------------------------------------------------
set-jbi-runtime-logger negitiveRuntimeLogger2.property
CLI131 Invalid property syntax.

-------------------------------------------------------------------
 Negative Set Runtime Configuration - Invalid configuration name
-------------------------------------------------------------------
set-jbi-runtime-configuration fred=6000
  ERROR:(UICMN2844)Invalid key "fred" passed in as part of runtime configuration value set.

-------------------------------------------------------------------
 Negative Set Runtime Configuration - Invalid configuration value
-------------------------------------------------------------------
set-jbi-runtime-configuration heartBeatInterval=fred
  ERROR:(UICMN2812)Can not convert attribute string value "fred" to attribute type "int" for attribute "heartBeatInterval".
    Caused by:(UICMN0000)fred is not a valid object value string for an object of type java.lang.Integer. 
      (UICMN0000)null
      (UICMN0000)For input string: "fred"
