filebinding00002.ksh- Installation test
Installing a component
IGNORE   jmx connection info: (host=localhost, port=31387, username=admin)
IGNORE   file=D:/chikkala/dev/jbi/dev/source/antbld/lib/filebinding.jar
Install component succeeded. [
SunFileBinding
]

BUILD SUCCESSFUL
IGNORE Total time: 3 seconds
Completed
