admincommon00006 : Test of common-client component configuration commands.
IGNORE jbi_instance_name is server
IGNORE jmx.provider is service:jmx:rmi:///jndi/rmi://Mystique01:10787/management/rmi-jmx-connector
BUILD SUCCESSFUL
IGNORE Total time: 1 second
Command create-cluster executed successfully.
Command create-instance executed successfully.
Command start-instance executed successfully.
Installing a component
IGNORE file=D:/nikita/dev/jsr208/jnet/open-esb/ri-clients/jbi-admin-common/bld/regress/testdata/component-with-custom-mbean.jar
Install component succeeded. [
admin-common-binding-1
]
BUILD SUCCESSFUL
IGNORE Total time: 1 second
Installing a component
IGNORE   file=D:/nikita/dev/jsr208/jnet/open-esb/ri-clients/jbi-admin-common/bld/regress/testdata/component-with-custom-mbean.jar
Install component succeeded. [
admin-common-binding-1
]
BUILD SUCCESSFUL
IGNORE Total time: 2 seconds
Starting a component
  name=admin-common-binding-1
Start component succeeded. [
admin-common-binding-1
]
BUILD SUCCESSFUL
IGNORE Total time: 1 second
Starting a component
  name=admin-common-binding-1
Start component succeeded. [
admin-common-binding-1
]
BUILD SUCCESSFUL
IGNORE Total time: 1 second
IGNORE jbi_instance_name is server
IGNORE jmx.provider is service:jmx:rmi:///jndi/rmi://Mystique01:10787/management/rmi-jmx-connector
TestComponentConfiguration: expecting servers to be up.
##### Result of  getComponentConfigurationFacadeMBeanName = com.sun.jbi:Target=server,ServiceType=Configuration,ComponentName=admin-common-binding-1
##### Result of  getComponentConfiguration(server):{ComponentCustomInfo=admin-common-binding-1 custom config MBean, C=, B=, A=}
##### Result of  setComponentConfiguration(server):<?xml version="1.0" encoding="UTF-8" standalone="yes"?><jbi-task version="1.0" xmlns="http://java.sun.com/xml/ns/jbi/management-message"><jbi-task-result><frmwk-task-result><frmwk-task-result-details><task-result-details><task-id>setAttributes</task-id><task-result>SUCCESS</task-result><message-type>INFO</message-type><task-status-msg><msg-loc-info><loc-token>JBIMA1804</loc-token><loc-message>Successfully set attributes [ C, B, A ] on component admin-common-binding-1.</loc-message><loc-param>[ C, B, A ]</loc-param><loc-param>admin-common-binding-1</loc-param></msg-loc-info></task-status-msg></task-result-details><locale>en</locale></frmwk-task-result-details></frmwk-task-result></jbi-task-result></jbi-task>
##### Result of  getComponentConfiguration(server):{ComponentCustomInfo=admin-common-binding-1 custom config MBean, C=baz, B=bar, A=foo}
##### Result of  getComponentConfiguration(ccfg-cluster):{ComponentCustomInfo=admin-common-binding-1 custom config MBean, C=, B=, A=}
##### Result of  setComponentConfiguration(ccfg-cluster):<?xml version="1.0" encoding="UTF-8" standalone="yes"?><jbi-task version="1.0" xmlns="http://java.sun.com/xml/ns/jbi/management-message"><jbi-task-result><frmwk-task-result><frmwk-task-result-details><task-result-details><task-id>setAttributes</task-id><task-result>SUCCESS</task-result><message-type>INFO</message-type><task-status-msg><msg-loc-info><loc-token>JBI_INSTANCE_NAME</loc-token><loc-message>ccfg-cluster-instance-1</loc-message></msg-loc-info></task-status-msg><task-status-msg><msg-loc-info><loc-token>JBIMA1804</loc-token><loc-message>Successfully set attributes [ C, B, A ] on component admin-common-binding-1.</loc-message><loc-param>[ C, B, A ]</loc-param><loc-param>admin-common-binding-1</loc-param></msg-loc-info></task-status-msg></task-result-details><locale>en</locale></frmwk-task-result-details></frmwk-task-result></jbi-task-result></jbi-task>
##### Result of  getComponentConfiguration(ccfg-cluster):{ComponentCustomInfo=admin-common-binding-1 custom config MBean, C=baz, B=bar, A=foo}
##### Result of  getComponentConfiguration(ccfg-cluster-instance-1):{ComponentCustomInfo=admin-common-binding-1 custom config MBean, C=baz, B=bar, A=foo}
##### Result of  setComponentConfiguration(ccfg-cluster-instance-1):<?xml version="1.0" encoding="UTF-8" standalone="yes"?><jbi-task version="1.0" xmlns="http://java.sun.com/xml/ns/jbi/management-message"><jbi-task-result><frmwk-task-result><frmwk-task-result-details><task-result-details><task-id>setAttributes</task-id><task-result>SUCCESS</task-result><message-type>INFO</message-type><task-status-msg><msg-loc-info><loc-token>JBIMA1804</loc-token><loc-message>Successfully set attributes [ C, B, A ] on component admin-common-binding-1.</loc-message><loc-param>[ C, B, A ]</loc-param><loc-param>admin-common-binding-1</loc-param></msg-loc-info></task-status-msg></task-result-details><locale>en</locale></frmwk-task-result-details></frmwk-task-result></jbi-task-result></jbi-task>
##### Result of  getComponentConfiguration(ccfg-cluster-instance-1):{ComponentCustomInfo=admin-common-binding-1 custom config MBean, C=clusterInstanceBaz, B=clusterInstanceBar, A=clusterInstanceFoo}
BUILD SUCCESSFUL
IGNORE Total time: 3 seconds
Stopping a component
  name=admin-common-binding-1
Stop component succeeded. [
admin-common-binding-1
]
BUILD SUCCESSFUL
IGNORE Total time: 1 second
Stopping a component
  name=admin-common-binding-1
Stop component succeeded. [
admin-common-binding-1
]
BUILD SUCCESSFUL
IGNORE Total time: 1 second
Shutting down a component
  name=admin-common-binding-1
Shutdown component succeeded. [
admin-common-binding-1
]
BUILD SUCCESSFUL
IGNORE Total time: 1 second
Shutting down a component
  name=admin-common-binding-1
Shutdown component succeeded. [
admin-common-binding-1
]
BUILD SUCCESSFUL
IGNORE Total time: 1 second
Uninstalling a component
  name=admin-common-binding-1
Uninstall component succeeded. [
admin-common-binding-1
]
BUILD SUCCESSFUL
IGNORE Total time: 1 second
Uninstalling a component
  name=admin-common-binding-1
Uninstall component succeeded. [
admin-common-binding-1
]
BUILD SUCCESSFUL
IGNORE Total time: 1 second
Command stop-instance executed successfully.
Command delete-instance executed successfully.
Command delete-cluster executed successfully.
Command delete-node-agent-config executed successfully.
Command delete-node-agent executed successfully.
