now calling ant to pre-install the calculator
IGNORE JBI_HOME is C:\cygwin\home\kcbabo\gfmerge\build\open-esb\install\as8/jbi
IGNORE JBI_DOMAIN_ROOT is C:/cygwin/home/kcbabo/gfmerge/build/open-esb/install/as8/domains/domain1
IGNORE jbi_instance_name is server
IGNORE jbi_target_name is server
IGNORE jmx.provider is service:jmx:rmi:///jndi/rmi://nullset:18686/management/rmi-jmx-connector
IGNORE calcinstaller is file:/C:\cygwin\home\kcbabo\gfmerge\build\open-esb\install\as8/jbi/components/jbicalc/installers/calc.jar
before install, calling isEngine and isBinding.
isEngine = 'false', isBinding ='false'.
about to invoke loadNewInstaller.
resulting bean is 'com.sun.jbi:Target=server,ServiceType=Installer,ComponentName=JbiCalculator'
now calling getInstallerConfigurationMBean() on that bean.
resulting bean is 'com.sun.jbi:Target=server,ServiceType=InstallerConfiguration,ComponentName=JbiCalculator'
now setting/getting config variables.
Proxy: 'webcache.sfbay.sun.com' on port '8080'.

BUILD SUCCESSFUL
IGNORE Total time: 6 seconds
has been installed
0
has been uninstalled
0
exceptions
IGNORE 0
