testname is manage00502
Copying appropriate service assembly into autodeploy directory.
IGNORE JBI_HOME is /blueman2/d/open-esb2/open-esb/install/as8/jbi
IGNORE JBI_DOMAIN_ROOT is /blueman2/d/open-esb2/open-esb/install/as8/domains/domain1
jbi_instance_name is server
jbi_target_name is server
IGNORE jmx.provider is service:jmx:rmi:///jndi/rmi://blueman:10586/management/rmi-jmx-connector
IGNORE filebindingAU_local is /blueman2/d/open-esb2/open-esb/install/as8/jbi/components/bindings/filebinding/deployments/filedeploysol.zip

BUILD SUCCESSFUL
IGNORE Total time: 2 seconds
After autodeploy ...
IGNORE File count: /blueman2/d/open-esb2/open-esb/install/as8/domains/domain1/jbi/autodeploy
       2
IGNORE File count: /blueman2/d/open-esb2/open-esb/install/as8/domains/domain1/jbi/autodeploy/.autodeploystatus
       0
autoDeployed area success files
       0
autoDeployed area failed files
       0
recursive listing
IGNORE ./filedeploysol.zip
