now calling ant to uninstall the calculator
IGNORE JBI_HOME is C:\cygwin\home\kcbabo\gfmerge\build\open-esb\install\as8/jbi
IGNORE JBI_DOMAIN_ROOT is C:/cygwin/home/kcbabo/gfmerge/build/open-esb/install/as8/domains/domain1
IGNORE jbi_instance_name is domain1
IGNORE jbi_target_name is server
IGNORE jmx.provider is service:jmx:rmi:///jndi/rmi://nullset:18686/management/rmi-jmx-connector
resultingbean is com.sun.jbi:Target=server,ServiceType=Installer,ComponentName=JbiCalculator
getting ready to uninstall the component.
loadInstaller() -> com.sun.jbi:Target=server,ServiceType=Installer,ComponentName=JbiCalculator.
now setting/getting config variables.
Proxy: 'testcache.sfbay.sun.com' on port '80'.
now invoking uninstall() on that bean.
uninstallresults is ''
lastly, cleaning up...
results: true

BUILD SUCCESSFUL
IGNORE Total time: 4 seconds
has been installed
1
has been uninstalled
1
exceptions
IGNORE 1
