testname is manage00512
Copying appropriate service assembly into autodeploy directory.
IGNORE JBI_HOME is /blueman2/d/open-esb2/open-esb/install/as8/jbi
IGNORE JBI_DOMAIN_ROOT is /blueman2/d/open-esb2/open-esb/install/jbise/jbi/server
jbi_instance_name is server
jbi_target_name is server
IGNORE jmx.provider is service:jmx:rmi:///jndi/rmi://blueman:10586/management/rmi-jmx-connector
IGNORE filebindingAU_local is /blueman2/d/open-esb2/open-esb/install/as8/jbi/components/bindings/filebinding/deployments/filedeploysol.zip

BUILD SUCCESSFUL
IGNORE Total time: 13 seconds
After autodeploy ...
IGNORE File count: /blueman2/d/open-esb2/open-esb/install/jbise/jbi/server/jbi/autodeploy
       3
IGNORE File count: /blueman2/d/open-esb2/open-esb/install/jbise/jbi/server/jbi/autodeploy/.autodeploystatus
       3
autoDeployed area success files
       1
       0
autoDeployed area failed files
       0
       0
recursive listing
IGNORE ./.autodeploystatus/filedeploysol.zip
IGNORE ./.autodeploystatus/filedeploysol.zip--SunFileBinding_SAMPLE_SERVICE_ASSEMBLY
IGNORE ./filedeploysol.zip
IGNORE ./filedeploysol.zip_deployed
After autodeploy ...
[jbi-list-service-assemblies] ============================================================
[jbi-list-service-assemblies]   List of Service Assemblies for Target "server"
[jbi-list-service-assemblies] ============================================================
[jbi-list-service-assemblies] Name       : SunFileBinding_SAMPLE_SERVICE_ASSEMBLY
[jbi-list-service-assemblies] State      : Started
[jbi-list-service-assemblies] Description: This is an SA for File Binding
[jbi-list-service-assemblies] Service units in this service assembly [1]
[jbi-list-service-assemblies]   Service unit : SunFileBinding_SAMPLE_SERVICE_UNIT
[jbi-list-service-assemblies]     State      : Started
[jbi-list-service-assemblies]     Deployed on: SunFileBinding
[jbi-list-service-assemblies]     Description: This is an SU that is deployed to the file binding
[jbi-list-service-assemblies] ------------------------------------------------------------

BUILD SUCCESSFUL
IGNORE Total time: 1 second
After redeploy ...
IGNORE File count: /blueman2/d/open-esb2/open-esb/install/jbise/jbi/server/jbi/autodeploy
       3
IGNORE File count: /blueman2/d/open-esb2/open-esb/install/jbise/jbi/server/jbi/autodeploy/.autodeploystatus
       3
autoDeployed area success files
       1
       0
autoDeployed area failed files
       0
       0
recursive listing
IGNORE ./.autodeploystatus/filedeploysol.zip
IGNORE ./.autodeploystatus/filedeploysol.zip--78bc9676-71cb-44e2-93b1-39dc62b6e326
IGNORE ./filedeploysol.zip
IGNORE ./filedeploysol.zip_deployed
After redeploy ...
[jbi-list-service-assemblies] ============================================================
[jbi-list-service-assemblies]   List of Service Assemblies for Target "server"
[jbi-list-service-assemblies] ============================================================
[jbi-list-service-assemblies] Name       : 78bc9676-71cb-44e2-93b1-39dc62b6e326
[jbi-list-service-assemblies] State      : Started
[jbi-list-service-assemblies] Description: This is an empty calculator deployment.
[jbi-list-service-assemblies] Service units in this service assembly [1]
[jbi-list-service-assemblies]   Service unit : a0626a4d-0384-46f6-97b0-f8875a6bc121
[jbi-list-service-assemblies]     State      : Started
[jbi-list-service-assemblies]     Deployed on: JbiCalculator
[jbi-list-service-assemblies]     Description: This is an empty ASA.
[jbi-list-service-assemblies] ------------------------------------------------------------

BUILD SUCCESSFUL
IGNORE Total time: 1 second
After autoundeploy ...
IGNORE File count: /blueman2/d/open-esb2/open-esb/install/jbise/jbi/server/jbi/autodeploy
       2
IGNORE File count: /blueman2/d/open-esb2/open-esb/install/jbise/jbi/server/jbi/autodeploy/.autodeploystatus
IGNORE       1
autoDeployed area success files
       0
       1
autoDeployed area failed files
       0
       0
recursive listing
IGNORE ./filedeploysol.zip_undeployed
After undeploy ...
[jbi-list-service-assemblies] ============================================================
[jbi-list-service-assemblies]   List of Service Assemblies for Target "server"
[jbi-list-service-assemblies] ============================================================
[jbi-list-service-assemblies] No Service Assemblies were found for the specified query.
[jbi-list-service-assemblies] ------------------------------------------------------------

BUILD SUCCESSFUL
IGNORE Total time: 1 second
IGNORE Unloading JBI framework in response to VM termination.
IGNORE JBI framework shutdown complete.
IGNORE JBI framework has been unloaded.
