te00005.ksh- undeploy, stop, shutdown and uninstall transformation engine tests
Undeploying a service assembly
IGNORE   jmx connection info: (host=localhost, port=14849, username=admin)
  name=SunTransformationEngine_Service_Assembly
Service assembly undeployment succeeded. [
SunTransformationEngine_Service_Assembly
]

BUILD SUCCESSFUL
IGNORE Total time: 0 seconds
Undeploying a service assembly
IGNORE   jmx connection info: (host=localhost, port=14849, username=admin)
  name=SunTransformationEngine_CSV_Assembly
Service assembly undeployment succeeded. [
SunTransformationEngine_CSV_Assembly
]

BUILD SUCCESSFUL
IGNORE Total time: 0 seconds
Undeploying a service assembly
IGNORE   jmx connection info: (host=localhost, port=14849, username=admin)
  name=9ae51feb-0fc3-4ff6-wsdl-deployment13
Service assembly undeployment succeeded. [
9ae51feb-0fc3-4ff6-wsdl-deployment13
]

BUILD SUCCESSFUL
IGNORE Total time: 0 seconds
Undeploying a service assembly
IGNORE   jmx connection info: (host=localhost, port=14849, username=admin)
  name=9ae51feb-0fc3-4ff6-wsdl11-deployment
Service assembly undeployment succeeded. [
9ae51feb-0fc3-4ff6-wsdl11-deployment
]

BUILD SUCCESSFUL
IGNORE Total time: 0 seconds
Undeploy completed
Stopping a component
IGNORE   jmx connection info: (host=localhost, port=14849, username=admin)
  name=SunTransformationEngine
Stop component succeeded. [
SunTransformationEngine
]

BUILD SUCCESSFUL
IGNORE Total time: 0 seconds
Stopped TE
Shutting down a component
IGNORE   jmx connection info: (host=localhost, port=14849, username=admin)
  name=SunTransformationEngine
Shutdown component succeeded. [
SunTransformationEngine
]

BUILD SUCCESSFUL
IGNORE Total time: 0 seconds
Shutdown completed
Uninstalling a component
IGNORE   jmx connection info: (host=localhost, port=14849, username=admin)
  name=SunTransformationEngine
Uninstall component succeeded. [
SunTransformationEngine
]

BUILD SUCCESSFUL
IGNORE Total time: 0 seconds
UnInstall completed
All tests completed
